[
  {
    "message_stats": {
      "deliver_get": 2784848,
      "deliver_get_details": {
        "rate": 18.8
      },
      "deliver_no_ack": 2784848,
      "deliver_no_ack_details": {
        "rate": 18.8
      },
      "publish": 2784848,
      "publish_details": {
        "rate": 20.4
      }
    },
    "messages": 0,
    "messages_details": {
      "rate": 0.0
    },
    "messages_ready": 0,
    "messages_ready_details": {
      "rate": 0.0
    },
    "messages_unacknowledged": 0,
    "messages_unacknowledged_details": {
      "rate": 0.0
    },
    "policy": "",
    "exclusive_consumer_tag": "",
    "consumers": 2,
    "memory": 76472,
    "backing_queue_status": {
      "q1": 0,
      "q2": 0,
      "delta": [
        "delta",
        "undefined",
        0,
        "undefined"
      ],
      "q3": 0,
      "q4": 0,
      "len": 0,
      "pending_acks": 0,
      "target_ram_count": "infinity",
      "ram_msg_count": 0,
      "ram_ack_count": 0,
      "next_seq_id": 19410,
      "persistent_count": 0,
      "avg_ingress_rate": 0.0,
      "avg_egress_rate": 0.0,
      "avg_ack_ingress_rate": 0.0,
      "avg_ack_egress_rate": 0.0
    },
    "status": "running",
    "name": "persistent_sevas",
    "vhost": "/",
    "durable": true,
    "auto_delete": false,
    "arguments": {},
    "node": "rabbit@Centos6_64bit"
  }
]